%YAML 1.1
%TAG !u! tag:unity3d.com,2011:
--- !u!114 &11400000
MonoBehaviour:
  m_ObjectHideFlags: 0
  m_PrefabParentObject: {fileID: 0}
  m_PrefabInternal: {fileID: 0}
  m_GameObject: {fileID: 0}
  m_Enabled: 1
  m_EditorHideFlags: 0
  m_Script: {fileID: 11500000, guid: 80532ee26630d144b80db2dba093e099, type: 3}
  m_Name: MoveClosestEnemy
  m_EditorClassIdentifier: 
  _hideFlags: 0
  _drawDebug: 1
  _friendWeight: 1
  _enemyWeight: 1
  _closestWeight: 1
