%YAML 1.1
%TAG !u! tag:unity3d.com,2011:
--- !u!114 &11400000
MonoBehaviour:
  m_ObjectHideFlags: 0
  m_PrefabParentObject: {fileID: 0}
  m_PrefabInternal: {fileID: 0}
  m_GameObject: {fileID: 0}
  m_Enabled: 1
  m_EditorHideFlags: 0
  m_Script: {fileID: 11500000, guid: 8861f1d7198e75a42b4fc5033b1d67df, type: 3}
  m_Name: MoveFromFromDanger
  m_EditorClassIdentifier: 
  _hideFlags: 0
  _enemyWeight: 8
  _fiendWeight: 0.3
  _favourCentralTiles: 1
  _centralTileWeight: 0.1
  _attackedTileWeight: 0.5
  _occupiedTileWeight: 0.3
  _maxEnemyDistance: 2
