%YAML 1.1
%TAG !u! tag:unity3d.com,2011:
--- !u!114 &11400000
MonoBehaviour:
  m_ObjectHideFlags: 32
  m_PrefabParentObject: {fileID: 0}
  m_PrefabInternal: {fileID: 0}
  m_GameObject: {fileID: 0}
  m_Enabled: 1
  m_EditorHideFlags: 0
  m_Script: {fileID: 11500000, guid: 985f4771ab7fa764dafebec921829794, type: 3}
  m_Name: CommandUnit
  m_EditorClassIdentifier: 
  _hideFlags: 32
  _priority: 2
  _position: {x: 0, y: 0}
  _allegiance: 0
  _health: 5
  _damage: 2
  _moveSelector: {fileID: 11400000, guid: 37e9723b6eecaf342b93a695e87c986a, type: 2}
  _attack: {fileID: 0}
  _unitType: {fileID: 11400000, guid: 27471a0b858fc784282d3c6d7fd3e6b0, type: 2}
  _moveLogic: {fileID: 11400000, guid: bf0a2d1e788121f48b2c6026a5069b9b, type: 2}
  _attackLogic: {fileID: 0}
  OnUnitMoved:
    m_PersistentCalls:
      m_Calls: []
    m_TypeName: ScriptableUnit+UnitMoveEvent, Assembly-CSharp, Version=0.0.0.0, Culture=neutral,
      PublicKeyToken=null
  OnUnitAttack:
    m_PersistentCalls:
      m_Calls: []
    m_TypeName: ScriptableUnit+UnitAttackEvent, Assembly-CSharp, Version=0.0.0.0,
      Culture=neutral, PublicKeyToken=null
  OnUnitDamaged:
    m_PersistentCalls:
      m_Calls: []
    m_TypeName: ScriptableUnit+UnitDamageEvent, Assembly-CSharp, Version=0.0.0.0,
      Culture=neutral, PublicKeyToken=null
