%YAML 1.1
%TAG !u! tag:unity3d.com,2011:
--- !u!114 &11400000
MonoBehaviour:
  m_ObjectHideFlags: 32
  m_PrefabParentObject: {fileID: 0}
  m_PrefabInternal: {fileID: 0}
  m_GameObject: {fileID: 0}
  m_Enabled: 1
  m_EditorHideFlags: 0
  m_Script: {fileID: 11500000, guid: 985f4771ab7fa764dafebec921829794, type: 3}
  m_Name: Dreadnought
  m_EditorClassIdentifier: 
  _hideFlags: 32
  _priority: 1
  _position: {x: 0, y: 0}
  _allegiance: 0
  _health: 5
  _damage: 2
  _moveSelector: {fileID: 11400000, guid: bc7fc8639bfc909458f392d93a98bb86, type: 2}
  _attack: {fileID: 11400000, guid: 1308f5d961a86e642a3a6e73f1f7d023, type: 2}
  _unitType: {fileID: 11400000, guid: 608202325098dba488419d6bc50801b2, type: 2}
  _moveLogic: {fileID: 11400000, guid: d279a3285d1fb254f85a8f19ba17e8d7, type: 2}
  _attackLogic: {fileID: 11400000, guid: 6fedfcd02fe7db84887bfad02d9afdf7, type: 2}
  OnUnitMoved:
    m_PersistentCalls:
      m_Calls: []
    m_TypeName: ScriptableUnit+UnitMoveEvent, Assembly-CSharp, Version=0.0.0.0, Culture=neutral,
      PublicKeyToken=null
  OnUnitAttack:
    m_PersistentCalls:
      m_Calls: []
    m_TypeName: ScriptableUnit+UnitAttackEvent, Assembly-CSharp, Version=0.0.0.0,
      Culture=neutral, PublicKeyToken=null
  OnUniUpdated:
    m_PersistentCalls:
      m_Calls: []
    m_TypeName: ScriptableUnit+UnitDamageEvent, Assembly-CSharp, Version=0.0.0.0,
      Culture=neutral, PublicKeyToken=null
  OnUnitKilled:
    m_PersistentCalls:
      m_Calls: []
    m_TypeName: ScriptableUnit+UnitKilledEvent, Assembly-CSharp, Version=0.0.0.0,
      Culture=neutral, PublicKeyToken=null
