%YAML 1.1
%TAG !u! tag:unity3d.com,2011:
--- !u!114 &11400000
MonoBehaviour:
  m_ObjectHideFlags: 32
  m_PrefabParentObject: {fileID: 0}
  m_PrefabInternal: {fileID: 0}
  m_GameObject: {fileID: 0}
  m_Enabled: 1
  m_EditorHideFlags: 0
  m_Script: {fileID: 11500000, guid: 985f4771ab7fa764dafebec921829794, type: 3}
  m_Name: Tank
  m_EditorClassIdentifier: 
  _hideFlags: 32
  _priority: 1
  _position: {x: 0, y: 0}
  _allegiance: 1
  _health: 4
  _damage: 2
  _moveSelector: {fileID: 11400000, guid: d1e75560e03e8f64e90688e74256666e, type: 2}
  _attack: {fileID: 11400000, guid: 793e8daae69b99c4aa9e7f8fb174035e, type: 2}
  _unitType: {fileID: 11400000, guid: 05f246028f052be40aab2a6bc189e27b, type: 2}
  _moveLogic: {fileID: 0}
  _attackLogic: {fileID: 0}
  OnUnitMoved:
    m_PersistentCalls:
      m_Calls: []
    m_TypeName: ScriptableUnit+UnitMoveEvent, Assembly-CSharp, Version=0.0.0.0, Culture=neutral,
      PublicKeyToken=null
  OnUnitAttack:
    m_PersistentCalls:
      m_Calls: []
    m_TypeName: ScriptableUnit+UnitAttackEvent, Assembly-CSharp, Version=0.0.0.0,
      Culture=neutral, PublicKeyToken=null
  OnUnitDamaged:
    m_PersistentCalls:
      m_Calls: []
    m_TypeName: ScriptableUnit+UnitDamageEvent, Assembly-CSharp, Version=0.0.0.0,
      Culture=neutral, PublicKeyToken=null
