%YAML 1.1
%TAG !u! tag:unity3d.com,2011:
--- !u!114 &11400000
MonoBehaviour:
  m_ObjectHideFlags: 0
  m_PrefabParentObject: {fileID: 0}
  m_PrefabInternal: {fileID: 0}
  m_GameObject: {fileID: 0}
  m_Enabled: 1
  m_EditorHideFlags: 0
  m_Script: {fileID: 11500000, guid: a792ee8f91da48947ac6c301e1590b08, type: 3}
  m_Name: Level1
  m_EditorClassIdentifier: 
  _hideFlags: 0
  _aiStartingUnits:
  - Unit: {fileID: 11400000, guid: d86c8c62e658c474abe4ea90bc4a6d8c, type: 2}
    Position: {x: 4, y: 6}
  - Unit: {fileID: 11400000, guid: 4e90726337342ca498558ca7b6c4e91c, type: 2}
    Position: {x: 4, y: 5}
  _humanStartingUnits:
  - Unit: {fileID: 11400000, guid: 129ca8128539ecb448c5e81db3240784, type: 2}
    Position: {x: 1, y: 0}
  - Unit: {fileID: 11400000, guid: 129ca8128539ecb448c5e81db3240784, type: 2}
    Position: {x: 6, y: 0}
  _terrain: {fileID: 11400000, guid: aac0b4d79643ac24dbc2c60e29b1c1cb, type: 2}
  _victoryConditions:
  - {fileID: 11400000, guid: 5533b79faf35980478a1ca14468f0330, type: 2}
  - {fileID: 11400000, guid: 65173fb704bd2e9409ca06bd719d83de, type: 2}
  - {fileID: 11400000, guid: 3ea786c8e8dc48249a43194a0a1bd14a, type: 2}
  - {fileID: 11400000, guid: 698915f93745b4d4e8756fb86b4eb71e, type: 2}
